
{
    "subject":"ISE",
    "number":"308",
    "semester":"Summer",
    "year":"2016",
    "title":"ssssss",
    "instructorName":"dsdsdsd",
    "instructorHome":"http://www.cs.stonybrook.edu/~richard",
    "exportDir":"./work/template/CSE308 template/public_html",
    "bannerSchoolImage":"RichardMcKenna.jpg",
    "leftFooterImage":"SBUDarkRedShieldLogo.png",
    "rightFooterImage":"SBUDarkRedShieldLogo.png",
    "stylesheet":"sea_wolf.css",
    "sitepages":[
        {
            "use":true,
            "navbarTitle":"Home",
            "fileName":"index.html",
            "script":"HomeBuilder.js"
        },
        {
            "use":true,
            "navbarTitle":"Syllabus",
            "fileName":"syllabus.html",
            "script":"SyllabusBuilder.js"
        },
        {
            "use":true,
            "navbarTitle":"Schedule",
            "fileName":"schedule.html",
            "script":"ScheduleBuilder.js"
        },
        {
            "use":false,
            "navbarTitle":"HWs",
            "fileName":"hws.html",
            "script":"HWsBuilder.js"
        },
        {
            "use":false,
            "navbarTitle":"Projects",
            "fileName":"projects.html",
            "script":"ProjectsBuilder.js"
        }
    ]
}