
{
    "work":[
        {
            "semester":"Summer 2016",
            "projects":[
                {
                    "name":"Atomic Comics",
                    "students":"BeauBrummell, NoonianSoong",
                    "link":"http://atomicomic.com"
                },
                {
                    "name":"C4 Comics",
                    "students":"JaneDoe",
                    "link":"http://c4-comics.appspot.com"
                }
            ]
        }
    ]
}