
{
    "startHour":"0",
    "endHour":"23",
    "undergrad_tas":[
        {
            "name":"bbb",
            "email":"bbbb@bbb.com"
        }
    ],
    "grad_tas":[
        {
            "name":"eee",
            "email":"eeee@eee.com"
        }
    ],
    "officeHours":[
        {
            "day":"TUESDAY",
            "time":"1_30am",
            "name":"eee"
        },
        {
            "day":"TUESDAY",
            "time":"3_00am",
            "name":"eee"
        },
        {
            "day":"WEDNESDAY",
            "time":"7_00am",
            "name":"bbb"
        }
    ]
}