
{
    "startingMondayMonth":"1",
    "startingMondayDay":"23",
    "endingFridayMonth":"5",
    "endingFridayDay":"19",
    "holidays":[
        {
            "month":"2",
            "day":"9",
            "title":"SNOW DAY",
            "link":"http://funnybizblog.com/funny-stuff/"
        },
        {
            "month":"3",
            "day":"13",
            "title":"Spring Break2",
            "link":" "
        }
    ],
    "lectures":[
        {
            "month":"2",
            "day":"14",
            "title":"Lecure 3",
            "topic":"Event Programming",
            "link":" "
        }
    ],
    "references":[
    ],
    "recitations":[
    ],
    "hws":[
        {
            "month":"3",
            "day":"27",
            "title":"HW3",
            "topic":"UML",
            "link":" ",
            "time":" ",
            "criteria":" "
        }
    ]
}